^C:\USERS\RAINBOWDASH\DOCUMENTS\VISUAL STUDIO 2019\PROJECTS\VIRTUALFUNCTION\VIRTUALFUNCTION.CPP
C:\USERS\RAINBOWDASH\DOCUMENTS\VISUAL STUDIO 2019\PROJECTS\VIRTUALFUNCTION\DEBUG\VC142.PDB
C:\USERS\RAINBOWDASH\DOCUMENTS\VISUAL STUDIO 2019\PROJECTS\VIRTUALFUNCTION\DEBUG\VC142.IDB
C:\USERS\RAINBOWDASH\DOCUMENTS\VISUAL STUDIO 2019\PROJECTS\VIRTUALFUNCTION\DEBUG\VIRTUALFUNCTION.OBJ
