^C:\USERS\RAINBOWDASH\DOCUMENTS\VISUAL STUDIO 2019\PROJECTS\VIRTUALFUNCTION\DEBUG\VIRTUALFUNCTION.OBJ
C:\USERS\RAINBOWDASH\DOCUMENTS\VISUAL STUDIO 2019\PROJECTS\VIRTUALFUNCTION\DEBUG\VIRTUALFUNCTION.EXE
C:\USERS\RAINBOWDASH\DOCUMENTS\VISUAL STUDIO 2019\PROJECTS\VIRTUALFUNCTION\DEBUG\VIRTUALFUNCTION.ILK
C:\USERS\RAINBOWDASH\DOCUMENTS\VISUAL STUDIO 2019\PROJECTS\VIRTUALFUNCTION\DEBUG\VIRTUALFUNCTION.PDB
